{
  "type": "tab",
  "id": "3455a08b.86de9",
  "label": "Flow 2",
  "flow": [
    {
      "id": "94544d0.31ee8b",
      "type": "mqtt in",
      "z": "3455a08b.86de9",
      "name": "",
      "topic": "test",
      "broker": "93d6c550.6c2938",
      "x": 160,
      "y": 121,
      "wires": [
        [
          "ec569b80.f41238"
        ]
      ]
    },
    {
      "id": "9ab10e38.b538d",
      "type": "mqtt out",
      "z": "3455a08b.86de9",
      "name": "",
      "topic": "test",
      "qos": "",
      "retain": "",
      "broker": "93d6c550.6c2938",
      "x": 345,
      "y": 196,
      "wires": []
    },
    {
      "id": "ec569b80.f41238",
      "type": "debug",
      "z": "3455a08b.86de9",
      "name": "",
      "active": true,
      "console": "false",
      "complete": "false",
      "x": 362,
      "y": 121,
      "wires": []
    },
    {
      "id": "2f2cc7c1.59a108",
      "type": "inject",
      "z": "3455a08b.86de9",
      "name": "",
      "topic": "",
      "payload": "{\"test\":\"test\"}",
      "payloadType": "json",
      "repeat": "",
      "crontab": "",
      "once": false,
      "x": 165,
      "y": 196,
      "wires": [
        [
          "9ab10e38.b538d"
        ]
      ]
    },
    {
      "id": "2652922.ca2936e",
      "type": "http in",
      "z": "3455a08b.86de9",
      "name": "",
      "url": "/sys",
      "method": "post",
      "swaggerDoc": "",
      "x": 150,
      "y": 82,
      "wires": [
        [
          "ec569b80.f41238",
          "f6621862.ee3d68"
        ]
      ]
    },
    {
      "id": "f6621862.ee3d68",
      "type": "http response",
      "z": "3455a08b.86de9",
      "name": "",
      "x": 343,
      "y": 82,
      "wires": []
    },
    {
      "id": "6782c274.02f95c",
      "type": "debug",
      "z": "3455a08b.86de9",
      "name": "",
      "active": true,
      "console": "false",
      "complete": "false",
      "x": 645,
      "y": 362,
      "wires": []
    },
    {
      "id": "9ec7240a.cb6268",
      "type": "http response",
      "z": "3455a08b.86de9",
      "name": "",
      "x": 584,
      "y": 272,
      "wires": []
    },
    {
      "id": "7f5beb3f.705114",
      "type": "http in",
      "z": "3455a08b.86de9",
      "name": "",
      "url": "/rc-connected",
      "method": "post",
      "swaggerDoc": "",
      "x": 95,
      "y": 412,
      "wires": [
        [
          "47085124.b2c0e"
        ]
      ]
    },
    {
      "id": "db7f7cda.b2bb",
      "type": "http in",
      "z": "3455a08b.86de9",
      "name": "",
      "url": "/rc-disconnected",
      "method": "post",
      "swaggerDoc": "",
      "x": 119,
      "y": 283,
      "wires": [
        [
          "47085124.b2c0e"
        ]
      ]
    },
    {
      "id": "b7d366a0.bfff48",
      "type": "http in",
      "z": "3455a08b.86de9",
      "name": "",
      "url": "/rc-event",
      "method": "post",
      "swaggerDoc": "",
      "x": 86,
      "y": 335,
      "wires": [
        [
          "47085124.b2c0e"
        ]
      ]
    },
    {
      "id": "47085124.b2c0e",
      "type": "function",
      "z": "3455a08b.86de9",
      "name": "",
      "func": "\nreturn msg;",
      "outputs": 1,
      "noerr": 0,
      "x": 366.5,
      "y": 384,
      "wires": [
        [
          "6782c274.02f95c",
          "9ec7240a.cb6268"
        ]
      ]
    }
  ]
}